digraph "src/Calculation.h"
{
 // LATEX_PDF_SIZE
  edge [fontname="Helvetica",fontsize="10",labelfontname="Helvetica",labelfontsize="10"];
  node [fontname="Helvetica",fontsize="10",shape=record];
  Node1 [label="src/Calculation.h",height=0.2,width=0.4,color="black", fillcolor="grey75", style="filled", fontcolor="black",tooltip=" "];
  Node1 -> Node2 [color="midnightblue",fontsize="10",style="solid",fontname="Helvetica"];
  Node2 [label="eigen/Eigen/Dense",height=0.2,width=0.4,color="grey75", fillcolor="white", style="filled",tooltip=" "];
  Node1 -> Node3 [color="midnightblue",fontsize="10",style="solid",fontname="Helvetica"];
  Node3 [label="Func.h",height=0.2,width=0.4,color="black", fillcolor="white", style="filled",URL="$_func_8h.html",tooltip=" "];
  Node3 -> Node2 [color="midnightblue",fontsize="10",style="solid",fontname="Helvetica"];
  Node3 -> Node4 [color="midnightblue",fontsize="10",style="solid",fontname="Helvetica"];
  Node4 [label="Func/Parser.h",height=0.2,width=0.4,color="grey75", fillcolor="white", style="filled",tooltip=" "];
  Node3 -> Node5 [color="midnightblue",fontsize="10",style="solid",fontname="Helvetica"];
  Node5 [label="memory",height=0.2,width=0.4,color="grey75", fillcolor="white", style="filled",tooltip=" "];
  Node1 -> Node6 [color="midnightblue",fontsize="10",style="solid",fontname="Helvetica"];
  Node6 [label="SampleGenerator.h",height=0.2,width=0.4,color="black", fillcolor="white", style="filled",URL="$_sample_generator_8h.html",tooltip=" "];
  Node6 -> Node7 [color="midnightblue",fontsize="10",style="solid",fontname="Helvetica"];
  Node7 [label="iostream",height=0.2,width=0.4,color="grey75", fillcolor="white", style="filled",tooltip=" "];
  Node6 -> Node8 [color="midnightblue",fontsize="10",style="solid",fontname="Helvetica"];
  Node8 [label="vector",height=0.2,width=0.4,color="grey75", fillcolor="white", style="filled",tooltip=" "];
  Node6 -> Node9 [color="midnightblue",fontsize="10",style="solid",fontname="Helvetica"];
  Node9 [label="random",height=0.2,width=0.4,color="grey75", fillcolor="white", style="filled",tooltip=" "];
  Node6 -> Node10 [color="midnightblue",fontsize="10",style="solid",fontname="Helvetica"];
  Node10 [label="utility",height=0.2,width=0.4,color="grey75", fillcolor="white", style="filled",tooltip=" "];
  Node6 -> Node11 [color="midnightblue",fontsize="10",style="solid",fontname="Helvetica"];
  Node11 [label="math.h",height=0.2,width=0.4,color="grey75", fillcolor="white", style="filled",tooltip=" "];
  Node6 -> Node3 [color="midnightblue",fontsize="10",style="solid",fontname="Helvetica"];
  Node6 -> Node12 [color="midnightblue",fontsize="10",style="solid",fontname="Helvetica"];
  Node12 [label="Exceptions.h",height=0.2,width=0.4,color="black", fillcolor="white", style="filled",URL="$_exceptions_8h.html",tooltip=" "];
  Node12 -> Node7 [color="midnightblue",fontsize="10",style="solid",fontname="Helvetica"];
  Node1 -> Node12 [color="midnightblue",fontsize="10",style="solid",fontname="Helvetica"];
}
