digraph "src/SampleGenerator.h"
{
 // LATEX_PDF_SIZE
  edge [fontname="Helvetica",fontsize="10",labelfontname="Helvetica",labelfontsize="10"];
  node [fontname="Helvetica",fontsize="10",shape=record];
  Node1 [label="src/SampleGenerator.h",height=0.2,width=0.4,color="black", fillcolor="grey75", style="filled", fontcolor="black",tooltip=" "];
  Node1 -> Node2 [dir="back",color="midnightblue",fontsize="10",style="solid",fontname="Helvetica"];
  Node2 [label="src/Calculation.h",height=0.2,width=0.4,color="black", fillcolor="white", style="filled",URL="$_calculation_8h.html",tooltip=" "];
  Node2 -> Node3 [dir="back",color="midnightblue",fontsize="10",style="solid",fontname="Helvetica"];
  Node3 [label="src/Calculation.cpp",height=0.2,width=0.4,color="black", fillcolor="white", style="filled",URL="$_calculation_8cpp.html",tooltip=" "];
  Node2 -> Node4 [dir="back",color="midnightblue",fontsize="10",style="solid",fontname="Helvetica"];
  Node4 [label="src/TheoryTest.h",height=0.2,width=0.4,color="black", fillcolor="white", style="filled",URL="$_theory_test_8h.html",tooltip=" "];
  Node4 -> Node5 [dir="back",color="midnightblue",fontsize="10",style="solid",fontname="Helvetica"];
  Node5 [label="src/main.cpp",height=0.2,width=0.4,color="black", fillcolor="white", style="filled",URL="$main_8cpp.html",tooltip=" "];
  Node4 -> Node6 [dir="back",color="midnightblue",fontsize="10",style="solid",fontname="Helvetica"];
  Node6 [label="src/TheoryTest.cpp",height=0.2,width=0.4,color="black", fillcolor="white", style="filled",URL="$_theory_test_8cpp.html",tooltip=" "];
  Node1 -> Node7 [dir="back",color="midnightblue",fontsize="10",style="solid",fontname="Helvetica"];
  Node7 [label="src/DimensionSampleGenerator.h",height=0.2,width=0.4,color="black", fillcolor="white", style="filled",URL="$_dimension_sample_generator_8h.html",tooltip=" "];
  Node7 -> Node8 [dir="back",color="midnightblue",fontsize="10",style="solid",fontname="Helvetica"];
  Node8 [label="src/DimensionSampleGenerator.cpp",height=0.2,width=0.4,color="black", fillcolor="white", style="filled",URL="$_dimension_sample_generator_8cpp.html",tooltip=" "];
  Node8 -> Node5 [dir="back",color="midnightblue",fontsize="10",style="solid",fontname="Helvetica"];
  Node7 -> Node4 [dir="back",color="midnightblue",fontsize="10",style="solid",fontname="Helvetica"];
  Node1 -> Node9 [dir="back",color="midnightblue",fontsize="10",style="solid",fontname="Helvetica"];
  Node9 [label="src/SampleGenerator.cpp",height=0.2,width=0.4,color="black", fillcolor="white", style="filled",URL="$_sample_generator_8cpp.html",tooltip=" "];
  Node9 -> Node5 [dir="back",color="midnightblue",fontsize="10",style="solid",fontname="Helvetica"];
  Node1 -> Node4 [dir="back",color="midnightblue",fontsize="10",style="solid",fontname="Helvetica"];
}
